government = monarchy
add_government_reform = autocracy_reform
government_rank = 1
primary_culture = tuathak
religion = autumn_court
technology_group = tech_eordand
capital = 1809

1000.1.1 = { set_estate_privilege = estate_mages_organization_guilds }

1438.3.10 = {
	monarch = {
		name = "Ewandil V"
		dynasty = "Firstborn"
		adm = 3
		dip = 5
		mil = 2
		birth_date = 1400.3.10
	}
	add_ruler_personality = secretive_personality
	heir = {
		name = "Lallatha"
		monarch_name = "Lallatha I"
		dynasty = "Firstborn"
		birth_date = 1432.2.11
		death_date = 1481.3.2
		claim = 95
		female = yes
		adm = 4
		dip = 2
		mil = 3
	}
	queen = {
		country_of_origin = H15
		name = "Lanhara"
		dynasty = "Beechleaf"
		birth_date = 1404.5.20
		death_date = 1475.4.10
		female = yes
		adm = 1
		dip = 3
		mil = 3
	}
}
