#138 - Zeta

owner = A05
controller = A05
add_core = A05
culture = reverian
religion = regent_court
hre = no
base_tax = 3
base_production = 3
trade_goods = naval_supplies
base_manpower = 3
capital = "" 
is_city = yes







