#210 - Navarre | 

owner = A13
controller = A13
add_core = A13
add_core = A70
culture = bluefoot_halfling
religion = regent_court

hre = no

base_tax = 4
base_production = 4
base_manpower = 4

trade_goods = livestock

capital = ""

is_city = yes








