# No previous file for Kaluga
owner = A98
controller = A98
add_core = A98
culture = east_damerian
religion = regent_court

hre = yes

base_tax = 3
base_production = 5
base_manpower = 3

trade_goods = livestock

capital = ""

is_city = yes






