#471 - Alimuly

owner = F01
controller = F01
add_core = F01
add_core = F03
culture = kheteratan
religion = khetist

hre = no

base_tax = 5
base_production = 3
base_manpower = 4

trade_goods = sugar

capital = ""

is_city = yes










