#488 - Les Cayes

owner = F09
controller = F09
add_core = F09
culture = sandfang_gnoll
religion = xhazobkult

hre = no

base_tax = 2
base_production = 2
base_manpower = 4

trade_goods = gold

capital = ""

is_city = yes



