#537 - Medirudu (coppermine)

owner = F15
controller = F15
add_core = F15
culture = exodus_goblin
religion = goblinic_shamanism


base_tax = 3
base_production = 3
base_manpower = 2

trade_goods = copper

capital = ""











add_permanent_province_modifier = {
	name = human_minority_integrated_large
	duration = -1
}

