# No previous file for Nakhon Si Thammarat
owner = F37
controller = F37
add_core = F37
culture = brasanni
religion = bulwari_sun_cult

hre = no

base_tax = 1
base_production = 2
base_manpower = 2

trade_goods = grain

capital = ""

is_city = yes









