# No previous file for West Timor
owner = F31
controller = F31
add_core = F31
culture = surani
religion = bulwari_sun_cult

hre = no

base_tax = 3
base_production = 2
base_manpower = 1

trade_goods = cotton

capital = ""

is_city = yes









