# No previous file for Canton
owner = F27
controller = F27
add_core = F27
culture = firanyan_harpy
religion = the_hunt


base_tax = 1
base_production = 1
base_manpower = 2

trade_goods = copper

capital = ""

is_city = yes









