# No previous file for Nautakr
owner = Z08
controller = Z08
add_core = Z08
culture = east_dalr
religion = skaldhyrric_faith

hre = no

base_tax = 2
base_production = 3
base_manpower = 2

trade_goods = wool

capital = ""

is_city = yes







