busilar_1 = {
	slot = 1
	generic = no
	ai = yes
	has_country_shield = yes
	
	potential = {
		tag = A29
	}
	
	A29_reclaim_mount_khenak = {
		icon = mission_control_the_desh
		position = 1
		
		trigger = {
			364 = {
				owned_by = ROOT
			}
		}
		
		provinces_to_highlight = {
			OR = {
				province_id = 364
			}
			NOT = {
				country_or_non_sovereign_subject_holds = ROOT
			}
		}
		
		effect = {
			gnollsgate_area = {
				limit = {
					NOT = { is_core = ROOT }
					NOT = { is_permanent_claim = ROOT }
				}
				add_permanent_claim = ROOT
			}
		}
	}
	
	A29_claim_escandar = {
		icon = fight_bosnian_heresies
		position = 3
		
		required_missions = {
			A29_reclaim_mount_khenak
		}
		
		trigger = {
			owns_all_provinces = {
				area = gnollsgate_area
			}
		}
		
		provinces_to_highlight = {
			OR = {
				province_id = 316
				province_id = 317
				province_id = 913
			}
			NOT = {
				country_or_non_sovereign_subject_holds = ROOT
			}
		}
		
		effect = {
			hawkfields_area = {
				limit = {
					NOT = { is_core = ROOT }
					NOT = { is_permanent_claim = ROOT }
				}
				add_permanent_claim = ROOT
			}
			rhinmond_area = {
				limit = {
					NOT = { is_core = ROOT }
					NOT = { is_permanent_claim = ROOT }
				}
				add_permanent_claim = ROOT
			}
		}
	}
	
	A29_expand_our_coastline = {
		icon = dalmatian_conquest
		position = 4
		
		required_missions = {
			A29_claim_escandar
		}
		
		trigger = {
			owns_all_provinces = {
				area = hawkfields_area
			}
		}
		
		provinces_to_highlight = {
			OR = {
				province_id = 409
				province_id = 410
				province_id = 411
			}
			NOT = {
				country_or_non_sovereign_subject_holds = ROOT
			}
		}
		
		effect = {
			antir_drop_area = {
				limit = {
					NOT = { is_core = ROOT }
					NOT = { is_permanent_claim = ROOT }
				}
				add_permanent_claim = ROOT
			}
			highcliff_area = {
				limit = {
					NOT = { is_core = ROOT }
					NOT = { is_permanent_claim = ROOT }
				}
				add_permanent_claim = ROOT
			}
		}
	}
	
	A29_the_imperial_flooded_coast = {
		icon = develop_provence
		position = 5
		
		required_missions = {
			A29_expand_our_coastline
		}
		
		trigger = {
			AND = {
				owns_all_provinces = {
					area = antir_drop_area
				}
				owns_all_provinces = {
					area = highcliff_area
				}
			}
		}
		
		provinces_to_highlight = {
			OR = {
				area = antir_drop_area
				area = highcliff_area
			}
			NOT = {
				country_or_non_sovereign_subject_holds = ROOT
			}
		}
		
		effect = {
			if = {
				limit = { 
					451 = {
						NOT = { is_core = ROOT }
						NOT = { is_permanent_claim = ROOT }
					}
				}
				451 = {
					add_permanent_claim = ROOT
				}
			}
		}
	}
}

busilar_2 = {
	slot = 2
	generic = no
	ai = yes
	has_country_shield = yes
	
	potential = {
		tag = A29
	}
	
	A29_reinforce_the_khenak = {
		icon = alpine_defenses
		position = 2
		
		required_missions = {
			A29_reclaim_mount_khenak
		}
		
		trigger = {
			AND = {
				treasury = 100
				364 = {
					AND = {
						has_building = fort_15th
						development = 10
					}
				}
			}
		}
		
		effect = {
			add_treasury = -100
			364 = {
				add_province_modifier = {
					name = busilar_khenak_fortifications
					duration = -1
				}
			}
		}
	}
	
	A29_revitalize_the_copper_mines = {
		icon = mission_rb_central_belt_coal_mining
		position = 3
		
		required_missions = {
			A29_reinforce_the_khenak
		}
		
		trigger = {
			AND = {
				364 = {
					AND = {
						has_production_building_trigger = yes
						development = 15
					}
				}
				371 = {
					AND = {
						has_production_building_trigger = yes
						development = 15
					}
				}
				367 = {
					AND = {
						has_production_building_trigger = yes
						development = 15
					}
				}
			}
		}
		
		effect = {
			364 = {
				add_province_modifier = {
					name = busilar_busilari_copper_mines
					duration = -1
				}
			}
			367 = {
				add_province_modifier = {
					name = busilar_busilari_copper_mines
					duration = -1
				}
			}
			371 = {
				add_province_modifier = {
					name = busilar_busilari_copper_mines
					duration = -1
				}
			}
		}
	}
	
	A29_rhinmond_area = {
		icon = the_hundred_years_war
		position = 4
		
		required_missions = {
			A29_claim_escandar
		}
		
		trigger = {
			owns_all_provinces = {
				area = rhinmond_area
			}
		}
		
		provinces_to_highlight = {
			OR = {
				province_id = 414
				province_id = 415
				province_id = 417
				province_id = 919
			}
			NOT = {
				country_or_non_sovereign_subject_holds = ROOT
			}
		}
		
		effect = {
			arannen_area = {
				limit = {
					NOT = { is_core = ROOT }
					NOT = { is_permanent_claim = ROOT }
				}
				add_permanent_claim = ROOT
			}
		}
	}
	
	A29_the_imperial_cub = {
		icon = onward_to_gaur
		position = 8
		
		required_missions = {
			A29_rhinmond_area
		}
		
		trigger = {
			owns_all_provinces = {
				area = arannen_area
			}
		}
		
		provinces_to_highlight = {
			OR = {
				province_id = 325
				province_id = 904
				province_id = 418
				province_id = 419
				province_id = 313
			}
			NOT = {
				country_or_non_sovereign_subject_holds = ROOT
			}
		}
		
		effect = {
			904 = {
				add_province_modifier = {
					name = busilar_busilari_stone_lion
					duration = -1
				}
			}
		}
	}
}

busilar_3 = {
	slot = 3
	generic = no
	ai = yes
	has_country_shield = yes
	
	potential = {
		tag = A29
	}
	
	A29_modernize_the_arsenal = {
		icon = africa_proconsulare
		position = 4
		
		required_missions = {
			A29_revitalize_the_copper_mines
			A29_expand_port_jaher
		}
		
		trigger = {
			365 = {
				AND = {
					development = 35
					has_building = drydock
					has_building = grand_shipyard
				}
			}
		}
		
		effect = {
			365 = {
				add_province_modifier = {
					name = busilar_modern_busilari_arsenal
					duration = -1
				}
			}
		}
	}
	
	A29_reunite_with_our_brothers = {
		icon = mission_protect_granada
		position = 5
		
		required_missions = {
			A29_rebuild_the_lion_armada
		}
		
		provinces_to_highlight = {
			OR = {
				province_id = 452
				province_id = 516
				province_id = 517
				province_id = 518
				province_id = 519
			}
			NOT = {
				country_or_non_sovereign_subject_holds = ROOT
			}
		}
		
		trigger = {
			OR = {
				owns_all_provinces = {
					area = crathanor_area
				}
				F17 = {
					is_subject_of = A29
				}
			}
		}
		
		effect = {
			reuyel_area = {
				limit = {
					NOT = { is_core = ROOT }
					NOT = { is_permanent_claim = ROOT }
				}
				add_permanent_claim = ROOT
			}
			medbahar_area = {
				limit = {
					NOT = { is_core = ROOT }
					NOT = { is_permanent_claim = ROOT }
				}
				add_permanent_claim = ROOT
			}
		}
	}
	
	A29_a_frontier_for_crathanor = {
		icon = mission_arabian_fort
		position = 6
		
		required_missions = {
			A29_reunite_with_our_brothers
		}
		
		provinces_to_highlight = {
			OR = {
				province_id = 521
				province_id = 522
				province_id = 523
				province_id = 581
				province_id = 520
				province_id = 528
				province_id = 529
			}
			NOT = {
				country_or_non_sovereign_subject_holds = ROOT
			}
		}
		
		trigger = {
			AND = {
				owns_all_provinces = {
					area = reuyel_area
				}
				owns_all_provinces = {
					area = medbahar_area
				}
			}
		}
		
		effect = {
			if = {
				limit = {
					exists = F23
				}
				add_casus_belli = {
					target = F23
					type = cb_vassalize_mission
				}
			}
			else = {
				tungr_mountains_area = {
					limit = {
						NOT = { is_core = ROOT }
						NOT = { is_permanent_claim = ROOT }
					}
					add_permanent_claim = ROOT
				}
			}
		}
	}
	
	A29_the_copper_dwarves = {
		icon = mission_fortify_rajputana
		position = 7
		
		required_missions = {
			A29_a_frontier_for_crathanor
		}
		
		provinces_to_highlight = {
			OR = {
				province_id = 525
				province_id = 526
				province_id = 527
			}
			NOT = {
				country_or_non_sovereign_subject_holds = ROOT
			}
		}
		
		trigger = {
			AND = {
				525 = {
					country_or_non_sovereign_subject_holds = ROOT
				}
				526 = {
					country_or_non_sovereign_subject_holds = ROOT
				}
				527 = {
					country_or_non_sovereign_subject_holds = ROOT
				}
			}
		}
		
		effect = {
			if = {
				limit = {
					exists = F23
				}
				527 = {
					change_culture = copper_dwarf
					change_religion = ancestor_worship
				}
				527 = {
					cede_province = F23
				}
			}
			else = {
				add_accepted_culture = copper_dwarf
			}
		}
	}
	
	A29_westend_pillar = {
		icon = mission_conquer_tunisia
		position = 8
		
		required_missions = {
			A29_the_copper_dwarves
		}
		
		trigger = {
			treasury = 500
		}
		
		effect = {
			516 = {
				center_of_trade = 1
			}
			516 = {
				add_province_modifier = {
					name = busilar_busilari_stone_lion
					duration = -1
				}
			}
		}
	}
	
	A29_stone_lions_of_busilar = {
		icon = mission_reclaim_dehli
		position = 9
		
		required_missions = {
			A29_the_imperial_cub
			A29_westend_pillar
			A29_a_symbol_of_our_protection
		}
		
		effect = {
			set_government_rank = 3
			add_country_modifier = {
				name = busilar_the_stone_lions_of_busilar
				duration = -1
			}
		}
	}
	
	A29_the_gnolls_defeated = {
		icon = mission_accomodate_the_rajputs
		position = 11
		
		required_missions = {
			A29_fulfilling_our_promise
		}
		
		trigger = {
			owns_all_provinces = {
				trade_company_region = trade_company_akan
				culture = west_sandfang_gnoll
				NOT = {
					province_id = 6091
					province_id = 6092
					province_id = 6093
					province_id = 6094
					province_id = 6095
					province_id = 5790
					province_id = 5791
					province_id = 5792
					province_id = 6128
				}
			}
		}
		
		effect = {
			399 = {
				if = {
					limit = {
						and  = {
							culture = west_sandfang_gnoll
							owned_by = ROOT
						}
					}
					change_culture = desha
					change_religion = ROOT
					add_devastation = 10
				}
			}
			397 = {
				if = {
					limit = {
						and  = {
							culture = west_sandfang_gnoll
							owned_by = ROOT
						}
					}
					change_culture = desha
					change_religion = ROOT
					add_devastation = 10
				}
			}
			398 = {
				if = {
					limit = {
						and  = {
							culture = west_sandfang_gnoll
							owned_by = ROOT
						}
					}
					change_culture = desha
					change_religion = ROOT
					add_devastation = 10
				}
			}
			404 = {
				if = {
					limit = {
						and  = {
							culture = west_sandfang_gnoll
							owned_by = ROOT
						}
					}
					change_culture = desha
					change_religion = ROOT
					add_devastation = 10
				}
			}
			381 = {
				if = {
					limit = {
						and  = {
							culture = west_sandfang_gnoll
							owned_by = ROOT
						}
					}
					change_culture = desha
					change_religion = ROOT
					add_devastation = 10
				}
			}
			405 = {
				if = {
					limit = {
						and  = {
							culture = west_sandfang_gnoll
							owned_by = ROOT
						}
					}
					change_culture = desha
					change_religion = ROOT
					add_devastation = 10
				}
			}
			382 = {
				if = {
					limit = {
						and  = {
							culture = west_sandfang_gnoll
							owned_by = ROOT
						}
					}
					change_culture = desha
					change_religion = ROOT
					add_devastation = 10
				}
			}
			403 = {
				if = {
					limit = {
						and  = {
							culture = west_sandfang_gnoll
							owned_by = ROOT
						}
					}
					change_culture = khasani
					change_religion = ROOT
					add_devastation = 10
				}
			}
			400 = {
				if = {
					limit = {
						and  = {
							culture = west_sandfang_gnoll
							owned_by = ROOT
						}
					}
					change_culture = khasani
					change_religion = ROOT
					add_devastation = 10
				}
			}
			384 = {
				if = {
					limit = {
						and  = {
							culture = west_sandfang_gnoll
							owned_by = ROOT
						}
					}
					change_culture = khasani
					change_religion = ROOT
					add_devastation = 10
				}
			}
			385 = {
				if = {
					limit = {
						and  = {
							culture = west_sandfang_gnoll
							owned_by = ROOT
						}
					}
					change_culture = khasani
					change_religion = ROOT
					add_devastation = 10
				}
			}
			383 = {
				if = {
					limit = {
						and  = {
							culture = west_sandfang_gnoll
							owned_by = ROOT
						}
					}
					change_culture = khasani
					change_religion = ROOT
					add_devastation = 10
				}
			}
			396 = {
				if = {
					limit = {
						and  = {
							culture = west_sandfang_gnoll
							owned_by = ROOT
						}
					}
					change_culture = khasani
					change_religion = ROOT
					add_devastation = 10
				}
			}
			395 = {
				if = {
					limit = {
						and  = {
							culture = west_sandfang_gnoll
							owned_by = ROOT
						}
					}
					change_culture = khasani
					change_religion = ROOT
					add_devastation = 10
				}
			}
			401 = {
				if = {
					limit = {
						and  = {
							culture = west_sandfang_gnoll
							owned_by = ROOT
						}
					}
					change_culture = khasani
					change_religion = ROOT
					add_devastation = 10
				}
			}
			406 = {
				if = {
					limit = {
						and  = {
							culture = west_sandfang_gnoll
							owned_by = ROOT
						}
					}
					change_culture = far_akani
					change_religion = ROOT
					add_devastation = 10
				}
			}
			407 = {
				if = {
					limit = {
						and  = {
							culture = west_sandfang_gnoll
							owned_by = ROOT
						}
					}
					change_culture = far_akani
					change_religion = ROOT
					add_devastation = 10
				}
			}
			393 = {
				if = {
					limit = {
						and  = {
							culture = west_sandfang_gnoll
							owned_by = ROOT
						}
					}
					change_culture = far_akani
					change_religion = ROOT
					add_devastation = 10
				}
			}
			392 = {
				if = {
					limit = {
						and  = {
							culture = west_sandfang_gnoll
							owned_by = ROOT
						}
					}
					change_culture = far_akani
					change_religion = ROOT
					add_devastation = 10
				}
			}
			391 = {
				if = {
					limit = {
						and  = {
							culture = west_sandfang_gnoll
							owned_by = ROOT
						}
					}
					change_culture = far_akani
					change_religion = ROOT
					add_devastation = 10
				}
			}
			390 = {
				if = {
					limit = {
						and  = {
							culture = west_sandfang_gnoll
							owned_by = ROOT
						}
					}
					change_culture = far_akani
					change_religion = ROOT
					add_devastation = 10
				}
			}
			389 = {
				if = {
					limit = {
						and  = {
							culture = west_sandfang_gnoll
							owned_by = ROOT
						}
					}
					change_culture = far_akani
					change_religion = ROOT
					add_devastation = 10
				}
			}
			388 = {
				if = {
					limit = {
						and  = {
							culture = west_sandfang_gnoll
							owned_by = ROOT
						}
					}
					change_culture = far_akani
					change_religion = ROOT
					add_devastation = 10
				}
			}
			402 = {
				if = {
					limit = {
						and  = {
							culture = west_sandfang_gnoll
							owned_by = ROOT
						}
					}
					change_culture = far_akani
					change_religion = ROOT
					add_devastation = 10
				}
			}
			387 = {
				if = {
					limit = {
						and  = {
							culture = west_sandfang_gnoll
							owned_by = ROOT
						}
					}
					change_culture = far_akani
					change_religion = ROOT
					add_devastation = 10
				}
			}
			386 = {
				if = {
					limit = {
						and  = {
							culture = west_sandfang_gnoll
							owned_by = ROOT
						}
					}
					change_culture = far_akani
					change_religion = ROOT
					add_devastation = 10
				}
			}
		}
	}
}

busilar_4 = {
	slot = 4
	generic = no
	ai = yes
	has_country_shield = yes
	
	potential = {
		tag = A29
	}
	
	A29_stabilize_the_country = {
		icon = mission_secure_khandesh
		position = 2
		
		trigger = {
			AND = {
				stability = 2
			}
		}
		
		effect = {
			add_country_modifier = {
				name = busilar_reconstruction
				duration = 3650
			}
		}
	}
	
	A29_expand_port_jaher = {
		icon = a_question_of_spain
		position = 3
		
		required_missions = {
			A29_stabilize_the_country
		}
		
		trigger = {
			365 = {
				AND = {
					development = 25
					has_building = dock
					has_building = shipyard
				}
			}
		}
		
		effect = {
			365 = {
				add_province_modifier = {
					name = busilar_expanded_port
					duration = -1
				}
				add_province_modifier = {
					name = busilar_colonial_port
					duration = 3650
				}
			}
		}
	}
	
	A29_rebuild_the_lion_armada = {
		icon = crusader_fleet
		position = 4
		
		required_missions = {
			A29_expand_port_jaher
		}
		
		trigger = {
			navy_size_percentage = 0.90
		}
		
		effect = {
			if = {
				limit = {
					exists = F17
				}
				add_casus_belli = {
					target = F17
					type = cb_vassalize_mission
				}
			}
			else = {
				crathanor_area = {
					limit = {
						NOT = { is_core = ROOT }
						NOT = { is_permanent_claim = ROOT }
					}
					add_permanent_claim = ROOT
				}
			}	
		}
	}
	
	A29_prepare_for_our_revenge = {
		icon = mission_warrior_gold
		position = 5
		
		required_missions = {
			A29_rebuild_the_lion_armada
		}
		
		trigger = {
			num_of_owned_provinces_with = {
				value = 5
				base_manpower = 5
				has_manpower_building_trigger = yes
			}
		}
		
		effect = {
			isle_of_tef_area = {
					limit = {
						NOT = { is_core = ROOT }
						NOT = { is_permanent_claim = ROOT }
					}
					add_permanent_claim = ROOT
			}
		}
	}
	
	A29_ending_the_rivalry = {
		icon = the_latin_empire
		position = 6
		
		required_missions = {
			A29_prepare_for_our_revenge
		}
		
		trigger = {
			AND = {
				380 = {
					country_or_non_sovereign_subject_holds = ROOT
				}
				369 = {
					country_or_non_sovereign_subject_holds = ROOT
				}
				35 = {
					country_or_non_sovereign_subject_holds = ROOT
				}
				379 = {
					country_or_non_sovereign_subject_holds = ROOT
				}
				36 = {
					country_or_non_sovereign_subject_holds = ROOT
				}
			}
		}
		
		provinces_to_highlight = {
			OR = {
				province_id = 380
				province_id = 369
				province_id = 35
				province_id = 379
				province_id = 36
			}
			NOT = {	
				country_or_non_sovereign_subject_holds = ROOT
			}
		}
		
		effect = {
			if = {
				limit = {
					exists = F06
				}
				add_casus_belli = {
					target = F06
					type = cb_vassalize_mission
				}
			}
			else = {
				deshak_area = {
					limit = {
						NOT = { is_core = ROOT }
						NOT = { is_permanent_claim = ROOT }
					}
					add_permanent_claim = ROOT
				}
			}
		}
	}
	
	A29_a_symbol_of_our_protection = {
		icon = mission_plus_ultra
		position = 8
		
		required_missions = {
			A29_ending_the_rivalry
		}
		
		trigger = {
			owns_all_provinces = {
				area = deshak_area
			}
		}
		
		provinces_to_highlight = {
			OR = {
				province_id = 404
				province_id = 381
				province_id = 405
				province_id = 382
				province_id = 403
			}
			NOT = {
				country_or_non_sovereign_subject_holds = ROOT
			}
		}
		
		effect = {
			382 = {
				add_province_modifier = {
					name = busilar_busilari_stone_lion
					duration = -1
				}
			}
		}
	}
	
	A29_surpass_the_gnolls = {
		icon = mission_conquer_timbuktu
		position = 9
		
		required_missions = {
			A29_a_symbol_of_our_protection
		}
		
		trigger = {
			AND = {
				army_size = F07
				navy_size = F07
			}	
		}
		
		effect = {
			middle_akan_area = {
					limit = {
						NOT = { is_core = ROOT }
						NOT = { is_permanent_claim = ROOT }
					}
					add_permanent_claim = ROOT
				}
			akan_mountains_area = {
					limit = {
						NOT = { is_core = ROOT }
						NOT = { is_permanent_claim = ROOT }
					}
					add_permanent_claim = ROOT
			}
		}
	}
	
	A29_fulfilling_our_promise = {
		icon = mission_reconquer_ceuta
		position = 10
		
		required_missions = {
			A29_surpass_the_gnolls
		}
		
		trigger = {
			owns_all_provinces = {
				OR = {
					area = middle_akan_area
					area = akan_mountains_area
				}
			}
		}
		
		provinces_to_highlight = {
			OR = {
				province_id = 400
				province_id = 384
				province_id = 385
				province_id = 383
				province_id = 401
				province_id = 395
				province_id = 396
			}
			NOT = {
				country_or_non_sovereign_subject_holds = ROOT
			}
		}
		
		effect = {
			ekha_area = {
					limit = {
						NOT = { is_core = ROOT }
						NOT = { is_permanent_claim = ROOT }
					}
					add_permanent_claim = ROOT
			}
			akarat_area = {
					limit = {
						NOT = { is_core = ROOT }
						NOT = { is_permanent_claim = ROOT }
					}
					add_permanent_claim = ROOT
			}
			akan_isles_area = {
					limit = {
						NOT = { is_core = ROOT }
						NOT = { is_permanent_claim = ROOT }
					}
					add_permanent_claim = ROOT
			}
			coastal_krahway_area = {
					limit = {
						NOT = { is_core = ROOT }
						NOT = { is_permanent_claim = ROOT }
					}
					add_permanent_claim = ROOT
			}
			salahad_islands_area = {
					limit = {
						NOT = { is_core = ROOT }
						NOT = { is_permanent_claim = ROOT }
					}
					add_permanent_claim = ROOT
			}
			hapak_area = {
					limit = {
						NOT = { is_core = ROOT }
						NOT = { is_permanent_claim = ROOT }
					}
					add_permanent_claim = ROOT
			}
		}
	}
	
	A29_lion_marsh = {
		icon = mission_clear_the_delta
		position = 11
		
		required_missions = {
			A29_a_western_outpost
		}
		
		trigger = {
			num_of_provinces_owned_or_owned_by_non_sovereign_subjects_with = {
				value = 10
				colonial_region = colonial_leechden
				is_city = yes
			}
		}
		
		effect = {
			add_country_modifier = {
				name = busilar_colonial_offices
				duration = 5475
			}
		}
	}
	
	A29_nur_hapaine = {
		icon = mission_demand_garjat_fealty
		position = 12
		
		required_missions = {
			A29_lion_marsh
		}
		
		trigger = {
			num_of_provinces_owned_or_owned_by_non_sovereign_subjects_with = {
				value = 10
				colonial_region = colonial_lai_peninsula
				is_city = yes
			}
		}
		
		effect = {
			add_country_modifier = {
				name = busilar_colonial_offices
				duration = 5475
			}
		}
	}
}

busilar_5 = {
	slot = 5
	generic = no
	ai = yes
	has_country_shield = yes
	
	potential = {
		tag = A29
	}
	
	A29_wander_to_aelantir = {
		icon = mission_launch_a_flagship
		position = 4
		
		required_missions = {
			A29_expand_port_jaher
		}
		
		trigger = {
			has_discovered = 928
		}
		
		effect = {
			add_country_modifier = {
				name = busilar_exploration_of_aelantir
				duration = 7300
			}
		}
	}
	
	A29_a_western_outpost = {
		icon = mission_claim_the_canaries
		position = 10
		
		required_missions = {
			A29_wander_to_aelantir
		}
		
		trigger = {
			num_of_provinces_owned_or_owned_by_non_sovereign_subjects_with = {
				value = 10
				colonial_region = colonial_endralliande
				is_city = yes
			}
		}
		
		effect = {
			add_country_modifier = {
				name = busilar_colonial_offices
				duration = 5475
			}
		}
	}

	A29_nariande = {
		icon = mission_colonize_the_west
		position = 11
		
		required_missions = {
			A29_a_western_outpost
		}
		
		trigger = {
			num_of_provinces_owned_or_owned_by_non_sovereign_subjects_with = {
				value = 10
				colonial_region = colonial_isles
				is_city = yes
			}
		}
		
		effect = {
			add_country_modifier = {
				name = busilar_colonial_offices
				duration = 5475
			}
		}
	}
	
	A29_nur_lorbet = {
		icon = mission_unite_coromandel
		position = 12
		
		required_missions = {
			A29_nariande
		}
		
		trigger = {
			num_of_provinces_owned_or_owned_by_non_sovereign_subjects_with = {
				value = 10
				colonial_region = colonial_soruin
				is_city = yes
			}
		}
		
		effect = {
			add_country_modifier = {
				name = busilar_colonial_offices
				duration = 5475
			}
		}
	}
	
	A29_nur_busilar = {
		icon = mission_south_african_bases
		position = 13
		
		required_missions = {
			A29_nur_lorbet
		}
		
		trigger = {
			num_of_provinces_owned_or_owned_by_non_sovereign_subjects_with = {
				value = 10
				colonial_region = colonial_amadia
				is_city = yes
			}
		}
		
		effect = {
			add_country_modifier = {
				name = busilar_colonial_offices
				duration = 5475
			}
		}
	}
}
