estate_raj_ministries =
{
	icon = 13

	# If true, country will get estate
	trigger = {	
		NOT = { government = native }
		NOT = { has_reform = cossacks_reform }
		NOT = { has_reform = siberian_tribe }
		is_nomad = no
		
		#Anbennar
		OR = {
			has_reform = raja_reform
			has_reform = prabhi_reform
			has_reform = senapti_reform
		}
	
	}

	# These scale with loyalty & power
	country_modifier_happy = {
		state_maintenance_modifier = -0.25
		vassal_income = 0.25
		development_cost = -0.1
	}
	country_modifier_neutral = {
		state_maintenance_modifier = -0.25
	}	
	country_modifier_angry = {
		state_maintenance_modifier = 0.25
		administrative_efficiency = -0.2
	}
	land_ownership_modifier = {
		raj_ministries_loyalty_modifier = 0.2
	}
	
	province_independence_weight = {
		factor = 1
		modifier = {
			factor = 0.5
			NOT = { development = 10 }
		}
		modifier = {
			factor = 1.2
			development = 10
		}
		modifier = {
			factor = 1.5
			development = 20
		}
		modifier = {
			factor = 2
			has_building = university
		}
		modifier = {
			factor = 2
			OR = {
				has_building = courthouse
				has_building = town_hall
			}
		}
	}
	
	# Influence modifiers
	base_influence = 20

		#For the Raja
	influence_modifier = {	
		desc = EST_VAL_MORE_THAN_10_SUBJECTS
		trigger = {
			num_of_subjects = 11
			NOT = {
				num_of_subjects = 21
			}
		}
		influence = 5
	}
	influence_modifier = {	
		desc = EST_VAL_MORE_THAN_20_SUBJECTS
		trigger = {
			num_of_subjects = 21
			NOT = {
				num_of_subjects = 31
			}
		}
		influence = 10
	}
	influence_modifier = {	
		desc = EST_VAL_MORE_THAN_30_SUBJECTS
		trigger = {
			num_of_subjects = 31
			NOT = {
				num_of_subjects = 41
			}
		}
		influence = 15
	}
	influence_modifier = {	
		desc = EST_VAL_MORE_THAN_40_SUBJECTS
		trigger = {
			num_of_subjects = 41
			NOT = {
				num_of_subjects = 51
			}
		}
		influence = 20
	}
	influence_modifier = {	
		desc = EST_VAL_MORE_THAN_50_SUBJECTS
		trigger = {
			num_of_subjects = 51
			NOT = {
				num_of_subjects = 61
			}
		}
		influence = 25
	}
	influence_modifier = {	
		desc = EST_VAL_MORE_THAN_60_SUBJECTS
		trigger = {
			num_of_subjects = 61
			NOT = {
				num_of_subjects = 81
			}
		}
		influence = 30
	}
	influence_modifier = {	
		desc = EST_VAL_MORE_THAN_80_SUBJECTS
		trigger = {
			num_of_subjects = 81
		}
		influence = 35
	}

		#For the Prabhi/Senapti
	# influence_modifier = {	
	#	desc = EST_VAL_LIBERTY_DESIRE_ABOVE_50
	#	trigger = {
	#		liberty_desire = 50
	#	}
	#	influence = -10
	# }
	influence_modifier = {
		desc = EST_VAL_FRONTIER_OF_THE_RAJ
		trigger = {
			OR = {
				has_reform = prabhi_reform
				has_reform = senapti_reform
			}
			any_neighbor_country = {
				NOT = {
					has_reform = raja_reform
					has_reform = prabhi_reform
					has_reform = senapti_reform
				}
			}
			capital_scope = {
				province_distance = {
					who = 4411
					distance = 100
				}
			}
		}
		influence = -5
	}
	influence_modifier = {
		desc = EST_VAL_DISTANCE_TO_DHENIJANSAR
		trigger = {
			OR = {
				has_reform = prabhi_reform
				has_reform = senapti_reform
			}
			capital_scope = {
				province_distance = {
					who = 4411
					distance = 100
				}
				NOT = {
					province_distance = {
						who = 4411
						distance = 200
					}
				}
			}
		}
		influence = -5
	}
	influence_modifier = {
		desc = EST_VAL_DISTANCE_TO_DHENIJANSAR
		trigger = {
			OR = {
				has_reform = prabhi_reform
				has_reform = senapti_reform
			}
			capital_scope = {
				province_distance = {
					who = 4411
					distance = 200
				}
				NOT = {
					province_distance = {
						who = 4411
						distance = 300
					}
				}
			}
		}
		influence = -10
	}
	influence_modifier = {
		desc = EST_VAL_DISTANCE_TO_DHENIJANSAR
		trigger = {
			OR = {
				has_reform = prabhi_reform
				has_reform = senapti_reform
			}
			capital_scope = {
				province_distance = {
					who = 4411
					distance = 300
				}
				NOT = {
					province_distance = {
						who = 4411
						distance = 400
					}
				}
			}
		}
		influence = -15
	}
	influence_modifier = {
		desc = EST_VAL_DISTANCE_TO_DHENIJANSAR
		trigger = {
			OR = {
				has_reform = prabhi_reform
				has_reform = senapti_reform
			}
			capital_scope = {
				province_distance = {
					who = 4411
					distance = 400
				}
				NOT = {
					province_distance = {
						who = 4411
						distance = 600
					}
				}
			}
		}
		influence = -20
	}
	influence_modifier = {
		desc = EST_VAL_DISTANCE_TO_DHENIJANSAR
		trigger = {
			OR = {
				has_reform = prabhi_reform
				has_reform = senapti_reform
			}
			capital_scope = {
				province_distance = {
					who = 4411
					distance = 600
				}
				NOT = {
					province_distance = {
						who = 4411
						distance = 800
					}
				}
			}
		}
		influence = -25
	}
	influence_modifier = {
		desc = EST_VAL_DISTANCE_TO_DHENIJANSAR
		trigger = {
			OR = {
				has_reform = prabhi_reform
				has_reform = senapti_reform
			}
			capital_scope = {
				province_distance = {
					who = 4411
					distance = 800
				}
			}
		}
		influence = -40
	}
	influence_modifier = {
		desc = EST_VAL_CONSOLIDATED_RAJ
		trigger = {
			OR = {
				has_reform = prabhi_reform
				has_reform = senapti_reform
			}
			overlord = { has_reform = consolidated_raj_reform }
		}
		influence = 10
	}
	
	influence_modifier = {
		desc = EST_VAL_OTHER_ESTATE_IN_POWER
		trigger = {
			OR = {
				has_disaster = estate_nobility_disaster
				has_disaster = estate_church_disaster
				has_disaster = estate_burghers_disaster
				has_disaster = estate_artificers_disaster
				has_disaster = estate_adventurers_disaster
				has_disaster = estate_mages_disaster
			}
		}	
		influence = -40
	}
	
	loyalty_modifier = {
		desc = EST_VAL_OTHER_ESTATE_IN_POWER_LOY
		trigger = {
			OR = {
				has_disaster = estate_nobility_disaster
				has_disaster = estate_church_disaster
				has_disaster = estate_burghers_disaster
				has_disaster = estate_artificers_disaster
				has_disaster = estate_adventurers_disaster
				has_disaster = estate_mages_disaster
			}
		}
		loyalty = -20
	}



	color = { 93 25 87 }

	privileges = {
		estate_raj_ministries_raj_cohesion
		estate_raj_ministries_land_rights
		estate_raj_ministries_extend_education_grants
		estate_raj_ministries_strict_caste_regulation
		estate_raj_ministries_ministerial_tithes
		estate_raj_ministries_delegate_territorial_management
		estate_raj_ministries_ceremonial_ruler_act
		estate_raj_ministries_establish_the_ministry_of_war
		estate_raj_ministries_control_over_monetary_policy
	}

	agendas = {
		estate_raj_ministries_develop_x
		estate_raj_ministries_build_production_building_in_y
		estate_raj_ministries_build_university_in_y
		estate_raj_ministries_build_manufactory_in_y
		estate_raj_ministries_recover_stability
		estate_raj_ministries_increase_stability
		estate_raj_ministries_reduce_overextension
		estate_raj_ministries_hire_advisor
		estate_raj_ministries_fire_advisor
		estate_raj_ministries_restore_currency
		estate_raj_ministries_recovery_from_hyperinflation
		estate_raj_ministries_get_cash
		estate_raj_ministries_pay_off_loans
		estate_raj_ministries_relations_with_X
		estate_raj_ministries_reduce_liberty_desire_in_x
		estate_raj_ministries_prosperity_in_x
		estate_raj_ministries_remove_devastation_in_x
		estate_raj_ministries_build_courthouse_in_y
	}
	influence_from_dev_modifier = 1.0
}