country_decisions = {
	investigate_rumors = {
		major = yes
		potential = {
			has_country_flag = investigate_strange_shit
			NOT = { has_country_flag = investigating }
			NOT = { has_any_disaster = yes }
		}
		
		provinces_to_highlight = {
			has_province_modifier = strange_shit
			owned_by = ROOT
		}
		
		allow = {
			any_owned_province = {
				has_province_modifier = strange_shit
				owned_by = ROOT
				controlled_by = ROOT
				num_of_units_in_province = {
					who = ROOT
					amount = 20
				}
			}
		}
		
		effect = {
			add_treasury = -80
			random_owned_province = {
				limit = {
					has_province_modifier = strange_shit
					owned_by = ROOT
					controlled_by = ROOT
					num_of_units_in_province = {
						who = ROOT
						amount = 20
					}
				}
				add_province_modifier = {
					name = investigating_strange_shit
					duration = -1
				}
				hidden_effect = {
					province_event = { id = diggy_fallen.4 days = 365 random = 60 }
				}
			}
			hidden_effect = { 
				set_country_flag = investigating 
			}
		}
		
		ai_will_do = {
			factor = 0
		}
	}
}
