namespace = unraveling

# Rediscovery of Aelantir!
country_event = {
	id = unraveling.0
	title = unraveling.0.t
	desc = unraveling.0.d
	picture = COLONIZATION_eventPicture
	
	
	fire_only_once = yes
	
	trigger = {
		NOT = { has_global_flag = new_world_discovered }
		OR = {
			north_america = {
				has_discovered = ROOT
			}
			south_america = {
				has_discovered = ROOT
			}
			new_world = {
				has_discovered = ROOT
			}
		}
		capital_scope = { continent = europe }	#just to be safe!
	}

	mean_time_to_happen = {
		months = 1
	}
	
	immediate = {
		set_global_flag = new_world_discovered
	}

	option = {		
		name = "unraveling.0.a"
		add_prestige = 50
		add_innovativeness_small_effect = yes
	}
}

# Mural of Castellar (start of Castellos is Dead chain) - Finding
country_event = {
	id = unraveling.1
	title = unraveling.1.t
	desc = unraveling.1.d
	picture = COMET_SIGHTED_eventPicture
	
	fire_only_once = yes
	
	trigger = {
		NOT = { has_global_flag = castellar_mural_discovered }
		has_global_flag = new_world_discovered
		is_year = 1500	
		OR = {
			north_america = {
				country_or_non_sovereign_subject_holds = ROOT
			}
			south_america = {
				country_or_non_sovereign_subject_holds = ROOT
			}
		}
		capital_scope = {
			continent = europe
		}
	}
	
	mean_time_to_happen = {
		months = 120
	}

	option = {
		name = "unraveling.1.a"	#Everyone must know of our findings!
		ai_chance = {
			factor = 50
			modifier = {
				factor = 1000
				OR = {
					ruler_has_personality = loose_lips_personality	#well yeah
				}
			}
			modifier = {
				factor = 10
				NOT = { religion = regent_court } #they dont care about it
			}
			modifier = {
				factor = 2
				OR = {
					ruler_has_personality = free_thinker_personality
					ruler_has_personality = scholar_personality
					ruler_has_personality = babbling_buffoon_personality
					ruler_has_personality = naive_personality
				}
			}

		}
		add_prestige = 10
		custom_tooltip = ct_hiding_castellos_is_dead.1
		
		hidden_effect = {
			every_country = {
				limit = {
					capital_scope = { continent = europe }
					NOT = { tag = ROOT }
					religion = regent_court
				}
				country_event = { id = unraveling.3 days = 7 random = 14 }	#Triggers global event for everyone
			}
#			every_country = {
#				limit = {
#					capital_scope = { continent = africa }
#					religion_group = bulwari
#				}
#				country_event = { id = unraveling.3 days = 30 random = 30 }
#			}
		}
	}
	
	option = {
		name = "unraveling.1.b"	#We need to keep this secret as much as we can.
		ai_chance = {
			factor = 50
			modifier = {
				factor = 1000
				OR = {
					ruler_has_personality = secretive_personality
				}
			}
			modifier = {
				factor = 2
				OR = {
					ruler_has_personality = careful_personality
					ruler_has_personality = calm_personality
				}
			}
		}
		set_country_flag  = "hiding_castellos_is_dead" 
		capital_scope = { set_province_flag = hiding_castellos_is_dead_prov }
		custom_tooltip = ct_hiding_castellos_is_dead.2
	}
}

# Mural of Castellar - Kept it hidden but its out now
country_event = {
	id = unraveling.2
	title = unraveling.2.t
	desc = unraveling.2.d
	picture = COMET_SIGHTED_eventPicture
	
	fire_only_once = yes
	
	trigger = {
		has_country_flag = "hiding_castellos_is_dead"
		any_owned_province = { has_province_flag = hiding_castellos_is_dead_prov }
	}
	
	mean_time_to_happen = {
		months = 120
		
		modifier = {
			factor = 0.1
			OR = {
				has_institution = printing_press
			}
		}
	}

	option = {
		name = "unraveling.2.a"	#The cat's out of the bag
		
		reduce_stability_or_adm_power = yes
		
		random_owned_province = {
			limit = { has_province_flag = hiding_castellos_is_dead_prov }
			clr_province_flag = hiding_castellos_is_dead_prov
		}

		hidden_effect = {
			every_country = {
				limit = {
					capital_scope = { continent = europe }
					NOT = { tag = ROOT }
					religion = regent_court
				}
				country_event = { id = unraveling.3 days = 14 random = 168 }
			}
#			every_country = {
#				limit = {
#					capital_scope = { continent = africa }
#					religion_group = bulwari
#				}
#				country_event = { id = unraveling.3 days = 30 random = 300 }
#			}

		}
	}
	
}

# First Castellos is Dead-related discovery, for all RC nations
country_event = {
	id = unraveling.3	# The Mural of Castellar
	title = unraveling.3.t
	desc = unraveling.3.d
	picture = COMET_SIGHTED_eventPicture
	
	is_triggered_only = yes
	
	option = {
		name = unraveling.3.a
		reduce_legitimacy_small_effect = yes
		add_prestige = 10
	}

	option = {
		name = unraveling.3.b
		add_country_modifier = {
			name = narrowminded_modifier
			duration = 1825
		}
	}
	option = {
		name = unraveling.3.c
		add_dip_power = 25	
	}
	after = {
		hidden_effect = { set_global_flag = castellar_mural_discovered }
		}
	}


# Discovery of Castellos' (ruined) Scepter, another piece of evidence for His death...
country_event = {
	id = unraveling.4	# Castellos's Scepter
	title = unraveling.4.t
	desc = unraveling.4.d
	picture = COMET_SIGHTED_eventPicture

	fire_only_once = yes
	
	major = yes

	major_trigger = {
		religion = regent_court
	}
	
	trigger = { 
		has_global_flag = castellar_mural_discovered
		NOT = { has_global_flag = castellars_scepter }
		OR = {
			north_america = {
				country_or_non_sovereign_subject_holds = ROOT
			}
			south_america = {
				country_or_non_sovereign_subject_holds = ROOT
			}
		}
		capital_scope = {
			continent = europe
		}
	}
	
	mean_time_to_happen = {
		months = 60
		modifier = {
			factor = 0.5
			is_year = 1530
		}
	}
	
	option = {
		name = unraveling.4.a
		reduce_legitimacy_small_effect = yes
		add_prestige = 10
	}
	
	after = {
		hidden_effect = {
			every_country = {
				limit = {
					capital_scope = { continent = europe }
				}
				country_event = { id = unraveling.5 days = 1825 random = 10 }
			}
			every_country = {
				limit = {
					capital_scope = { continent = africa }
					religion_group = bulwari
				}
				country_event = { id = unraveling.5 days = 1825 random = 30 }
			}

		}
		set_global_flag = castellars_scepter
	}
}

# Castellos is Dead - Event for Everyone -3 Stab
country_event = {
	id = unraveling.5
	title = unraveling.5.t
	desc = unraveling.5.d
	picture = COMET_SIGHTED_eventPicture
	
	is_triggered_only = yes
	
	immediate = {
		hidden_effect = {
			set_global_flag = "castellos_is_dead" 
		}
	}

	option = {
		name = "unraveling.5.a"	# It seems an Age of Unraveling has begun...
		trigger = {
			NOT = { religion_group = bulwari }
		}
		
		if = {	
			limit = {
				religion = regent_court
			}
			add_stability = -2
			hidden_effect = { 
				country_event = { id = unraveling.6 days = 3700 }
			}
		}
	}
	option = { # Confirms our teachings.
		name = "unraveling.5.b"
		trigger = {
			religion_group = bulwari
		}
		
		add_stability_or_adm_power = yes
	}
}


	
country_event = {
	id = unraveling.6	# Eleventh Pantheonic Council
	title = unraveling.6.t
	desc = unraveling.6.d
	picture = COMET_SIGHTED_eventPicture
	
	is_triggered_only = yes
	
	immediate = {
		hidden_effect = {
			set_global_flag = "castellos_is_dead_pantheonic_council" 
		}
	}

	
	option = {
		name = unraveling.6.a
		add_country_modifier = {
			name = mourning_castellos
			duration = 730
		}
		
		custom_tooltip = tooltip_remove_castellos_personal_deity
		hidden_effect = {
			if = {
				limit = { has_personal_deity = castellos }
				country_event = { id = regent_court.2 }
			}
		}
	}
	
	option = {
		name = unraveling.6.b
		add_country_modifier = {
			name = onwards_from_castellos
			duration = 1825
		}
		add_estate_loyalty = {
			estate = estate_church
			loyalty = -20
		}
		custom_tooltip = tooltip_remove_castellos_personal_deity
		hidden_effect = {
			if = {
				limit = { has_personal_deity = castellos }
				country_event = { id = regent_court.2 }
			}
		}
	}
}
	

#Castellos is Dead if discovering nation kept secret but was annexed
province_event = {
	id = unraveling.10
	title = unraveling.10.t
	desc = unraveling.10.d
	picture = COMET_SIGHTED_eventPicture
	
	fire_only_once = yes
	is_triggered_only = yes
	
	trigger = {
		has_province_flag = hiding_castellos_is_dead_prov
	}

	option = {
		name = "unraveling.10.a"	#The cat's out of the bag
		
		clr_province_flag = hiding_castellos_is_dead_prov

		hidden_effect = {
			every_country = {
				limit = {
					capital_scope = { continent = europe }
					religion = regent_court
				}
				country_event = { id = unraveling.3 days = 7 random = 14 }
			}
#			every_country = {
#				limit = {
#					capital_scope = { continent = africa }
#					religion_group = bulwari
#				}
#				country_event = { id = unraveling.3 days = 30 random = 30 }
#			}

		}
	}
}
