
namespace = dameria

#Vassalization offer
country_event = {
	id = dameria.1
	title = dameria.1.t
	desc = dameria.1.d
	picture = TRADEGOODS_eventPicture
	
	is_triggered_only = yes
	
	trigger = {
		always = yes
	}
	
	# Accept
	option = {
		name = dameria.1.a
		ai_chance = {
			factor = 100 
			
			modifier = {
				factor = 1.3
				
				historical_friend_with = FROM
			}
			
			modifier = {
				factor = 1.1
				
				has_opinion = {
					who = FROM
					value = 100
				}
			}
			
			modifier = {
				factor = 1.15
				
				has_opinion = {
					who = FROM
					value = 150
				}
			}
			
			modifier = {
				factor = 1.2
				
				has_opinion = {
					who = FROM
					value = 200
				}
			}
			
			modifier = {
				factor = 1.15
				
				alliance_with = FROM
			}
			
			modifier = {
				factor = 1.15
				
				NOT = { army_size = FROM }
			}
			
			modifier = {
				factor = 1.2
				
				FROM = { is_emperor = yes }
			}
		}
		A58 = { country_event = { id = dameria.2 days = 30 random = 10 } }
	}
	# Refuse
	option = {
		name = dameria.1.b
		ai_chance = {
			factor = 100 
			
			modifier = {
				factor = 2.5
				
				historical_rival_with = FROM
			}
			
			modifier = {
				factor = 1.1
				
				NOT = {
					has_opinion = {
						who = FROM
						value = 100
					}
				}
			}
			
			modifier = {
				factor = 1.15
				
				NOT = {
					has_opinion = {
						who = FROM
						value = 50
					}
				}
			}
			
			modifier = {
				factor = 1.5
				
				NOT = {
					has_opinion = {
						who = FROM
						value = 0
					}
				}
			}
			
			modifier = {
				factor = 10
				
				is_rival = FROM
			}
			
			modifier = {
				factor = 1.15
				
				army_size = FROM
			}
			
			modifier = {
				factor = 10
				
				is_emperor = yes
			}
			
			modifier = {
				factor = 1.15
				
				is_elector = yes
			}
		}
		A58 = { country_event = { id = dameria.3 days = 30 random = 10 } }
	}
}

# They Accept Vassalization offer
country_event = {
	id = dameria.2
	title = dameria.2.t
	desc = dameria.2.d
	picture = TRADEGOODS_eventPicture
	
	is_triggered_only = yes
	
	trigger = {
		always = yes
	}
	
	# Accept
	option = {
		name = dameria.2.a
		ai_chance = { factor = 100 }
		create_subject = {
			subject_type = vassal
			subject = FROM
		}
	}
}

#They refuse vassalization offer
country_event = {
	id = dameria.3
	title = dameria.3.t
	desc = dameria.3.d
	picture = TRADEGOODS_eventPicture
	
	is_triggered_only = yes
	
	trigger = {
		always = yes
	}
	
	# Accept
	option = {
		name = dameria.3.a
		ai_chance = { factor = 100 }
		add_casus_belli = {
			target = FROM
			type = cb_vassalize_mission
			months = 600
		}
	}
}

#Event for the religious war
country_event = {
	id = dameria.4
	title = dameria.4.t
	desc = dameria.4.d
	picture = TRADEGOODS_eventPicture
	
	is_triggered_only = yes
	
	trigger = {
		always = yes
	}
	
	# When you're leader of a league
	option = {
		name = dameria.4.a
		ai_chance = { factor = 100 }
		trigger = { is_league_leader = yes }
		if = {
			limit = {
				religion = corinite
			}
			random_owned_province = {
				limit = { 
					owner = { NOT = { has_friendly_reformation_center = yes } }
					superregion = western_cannor_superregion
				}
				add_reform_center = corinite
			}
		}
		else_if = {
			limit = { religion = regent_court }
			add_country_modifier = {
				name = dameria_safeguard_empire
				duration = 7300
			}
		}
	}
	# Religious peace
	option = {
		name = dameria.4.b
		ai_chance = { factor = 100 }
		trigger = { hre_religion_treaty = yes }
		
		add_prestige = 5
		add_dip_power = 75
	}
	
	# Religious dominance
	option = {
		name = dameria.4.c
		ai_chance = { factor = 100 }
		trigger = { hre_religion_locked = yes }
		if = {
			limit = {
				hre_religion = corinite
				religion = corinite
			}
			add_prestige = 25
			add_stability_or_adm_power = yes
		}
		else_if = {
			limit = {
				hre_religion = regent_court
				religion = regent_court
			}
			add_prestige = 25
			add_stability_or_adm_power = yes
		}
		else = {
			add_prestige = -25
		}
	}
}

